<svg
    xmlns="http://www.w3.org/2000/svg"
    viewBox="0 0 24 24"
    id="playtopause"
    width="24px"
    height="24px">
    <g
        id="group"
        transform="rotate(90 12 12)">
        <path
            id="path"
            d="M 5 6 L 5 10 L 19 10 L 19 6 L 5 6 M 5 14 L 5 18 L 19 18 L 19 14 L 5 14"
            fill="#000000"
            stroke-width="1"/>
    </g>
</svg>
