<svg
    xmlns="http://www.w3.org/2000/svg"
    viewBox="0 0 24 24"
    id="playtopause"
    width="24px"
    height="24px">
    <g
        id="group"
        transform="rotate(69.8005180004578 12 12)">
        <path
            id="path"
            d="M 5.673 5.776 L 5.673 10.449 L 19 10.449 L 19 7.347 L 5.673 5.776 M 5.673 13.551 L 5.673 18.224 L 19 16.653 L 19 13.551 L 5.673 13.551"
            fill="#000000"
            stroke-width="1"/>
    </g>
</svg>
