<svg
    xmlns="http://www.w3.org/2000/svg"
    viewBox="0 0 24 24"
    id="playtopause"
    width="24px"
    height="24px">
    <g
        id="group"
        transform="rotate(89.36664059338634 12 12)">
        <path
            id="path"
            d="M 5.021 5.993 L 5.021 10.014 L 19 10.014 L 19 6.042 L 5.021 5.993 M 5.021 13.986 L 5.021 18.007 L 19 17.958 L 19 13.986 L 5.021 13.986"
            fill="#000000"
            stroke-width="1"/>
    </g>
</svg>
