<svg
    xmlns="http://www.w3.org/2000/svg"
    viewBox="0 0 24 24"
    id="playtopause"
    width="24px"
    height="24px">
    <g
        id="group"
        transform="rotate(62.57113556807449 12 12)">
        <path
            id="path"
            d="M 5.914 5.695 L 5.914 10.61 L 19 10.61 L 19 7.829 L 5.914 5.695 M 5.914 13.39 L 5.914 18.305 L 19 16.171 L 19 13.39 L 5.914 13.39"
            fill="#000000"
            stroke-width="1"/>
    </g>
</svg>
