<svg
    xmlns="http://www.w3.org/2000/svg"
    viewBox="0 0 24 24"
    id="playtopause"
    width="24px"
    height="24px">
    <g
        id="group"
        transform="rotate(79.60192550000322 12 12)">
        <path
            id="path"
            d="M 5.347 5.884 L 5.347 10.231 L 19 10.231 L 19 6.693 L 5.347 5.884 M 5.347 13.769 L 5.347 18.116 L 19 17.307 L 19 13.769 L 5.347 13.769"
            fill="#000000"
            stroke-width="1"/>
    </g>
</svg>
