<svg
    xmlns="http://www.w3.org/2000/svg"
    viewBox="0 0 24 24"
    id="playtopause"
    width="24px"
    height="24px">
    <g
        id="group"
        transform="rotate(88.50227720930296 12 12)">
        <path
            id="path"
            d="M 5.05 5.983 L 5.05 10.033 L 19 10.033 L 19 6.1 L 5.05 5.983 M 5.05 13.967 L 5.05 18.017 L 19 17.9 L 19 13.967 L 5.05 13.967"
            fill="#000000"
            stroke-width="1"/>
    </g>
</svg>
