<?xml version="1.0" encoding="UTF-8" standalone="no"?>
<!-- Created with Inkscape (http://www.inkscape.org/) -->

<svg
   xmlns:dc="http://purl.org/dc/elements/1.1/"
   xmlns:cc="http://creativecommons.org/ns#"
   xmlns:rdf="http://www.w3.org/1999/02/22-rdf-syntax-ns#"
   xmlns:svg="http://www.w3.org/2000/svg"
   xmlns="http://www.w3.org/2000/svg"
   xmlns:sodipodi="http://sodipodi.sourceforge.net/DTD/sodipodi-0.dtd"
   xmlns:inkscape="http://www.inkscape.org/namespaces/inkscape"
   width="210mm"
   height="297mm"
   viewBox="0 0 210 297"
   version="1.1"
   id="svg8"
   inkscape:version="0.92.3 (2405546, 2018-03-11)"
   sodipodi:docname="pc.svg">
  <defs
     id="defs2" />
  <sodipodi:namedview
     id="base"
     pagecolor="#0c3844"
     bordercolor="#666666"
     borderopacity="1.0"
     inkscape:pageopacity="0.00392157"
     inkscape:pageshadow="2"
     inkscape:zoom="2.8"
     inkscape:cx="105.54699"
     inkscape:cy="38.129962"
     inkscape:document-units="mm"
     inkscape:current-layer="g4933"
     showgrid="false"
     inkscape:window-width="1858"
     inkscape:window-height="1057"
     inkscape:window-x="-8"
     inkscape:window-y="-8"
     inkscape:window-maximized="1"
     inkscape:pagecheckerboard="false" />
  <metadata
     id="metadata5">
    <rdf:RDF>
      <cc:Work
         rdf:about="">
        <dc:format>image/svg+xml</dc:format>
        <dc:type
           rdf:resource="http://purl.org/dc/dcmitype/StillImage" />
        <dc:title />
      </cc:Work>
    </rdf:RDF>
  </metadata>
  <g
     id="g4933"
     transform="translate(-104.32281,109.43574)">
    <path
       transform="scale(0.26458333)"
       id="path4903"
       d="M 440.66406,577.42578 H 406.375 v 8.33399 h 34.28906 z"
       style="opacity:1;vector-effect:none;fill:none;fill-opacity:1;fill-rule:nonzero;stroke:#ff005c;stroke-width:0.9533112;stroke-miterlimit:4;stroke-dasharray:none;stroke-opacity:1"
       inkscape:connector-curvature="0"
       inkscape:label="верх отсек" />
    <path
       transform="scale(0.26458333)"
       id="path4906"
       d="M 440.66406,591.57422 H 406.375 v 8.33398 h 34.28906 z"
       style="opacity:1;vector-effect:none;fill:none;fill-opacity:1;fill-rule:nonzero;stroke:#ff005c;stroke-width:0.9533112;stroke-miterlimit:4;stroke-dasharray:none;stroke-opacity:1"
       inkscape:connector-curvature="0"
       inkscape:label="ниж отсек" />
    <path
       transform="scale(0.26458333)"
       id="path4909"
       d="m 426.57812,674.04688 a 5.3571428,5.3571428 0 0 0 -0.3789,0.0137 5.3571428,5.3571428 0 0 0 -0.53125,0.0644 5.3571428,5.3571428 0 0 0 -0.52344,0.11719 5.3571428,5.3571428 0 0 0 -0.50781,0.16797 5.3571428,5.3571428 0 0 0 -0.48828,0.21875 5.3571428,5.3571428 0 0 0 -0.46485,0.26757 5.3571428,5.3571428 0 0 0 -0.43554,0.31055 5.3571428,5.3571428 0 0 0 -0.40235,0.35352 5.3571428,5.3571428 0 0 0 -0.36523,0.39257 5.3571428,5.3571428 0 0 0 -0.32422,0.42579 5.3571428,5.3571428 0 0 0 -0.2793,0.45703 5.3571428,5.3571428 0 0 0 -0.23437,0.48242 5.3571428,5.3571428 0 0 0 -0.1836,0.50195 5.3571428,5.3571428 0 0 0 -0.13086,0.51953 5.3571428,5.3571428 0 0 0 -0.0801,0.5293 5.3571428,5.3571428 0 0 0 -0.0273,0.53516 5.3571428,5.3571428 0 0 0 0.0137,0.3789 5.3571428,5.3571428 0 0 0 0.0645,0.53125 5.3571428,5.3571428 0 0 0 0.11719,0.52344 5.3571428,5.3571428 0 0 0 0.16796,0.50781 5.3571428,5.3571428 0 0 0 0.21875,0.48828 5.3571428,5.3571428 0 0 0 0.26758,0.46485 5.3571428,5.3571428 0 0 0 0.31055,0.43555 5.3571428,5.3571428 0 0 0 0.35352,0.40234 5.3571428,5.3571428 0 0 0 0.39257,0.36523 5.3571428,5.3571428 0 0 0 0.42578,0.32422 5.3571428,5.3571428 0 0 0 0.45704,0.2793 5.3571428,5.3571428 0 0 0 0.48242,0.23437 5.3571428,5.3571428 0 0 0 0.50195,0.1836 5.3571428,5.3571428 0 0 0 0.51953,0.13086 5.3571428,5.3571428 0 0 0 0.5293,0.0801 5.3571428,5.3571428 0 0 0 0.53515,0.0273 5.3571428,5.3571428 0 0 0 0.37891,-0.0137 5.3571428,5.3571428 0 0 0 0.53125,-0.0645 5.3571428,5.3571428 0 0 0 0.52344,-0.11718 5.3571428,5.3571428 0 0 0 0.50781,-0.16797 5.3571428,5.3571428 0 0 0 0.48828,-0.21875 5.3571428,5.3571428 0 0 0 0.46485,-0.26758 5.3571428,5.3571428 0 0 0 0.43554,-0.31055 5.3571428,5.3571428 0 0 0 0.40235,-0.35351 5.3571428,5.3571428 0 0 0 0.36523,-0.39258 5.3571428,5.3571428 0 0 0 0.32422,-0.42578 5.3571428,5.3571428 0 0 0 0.2793,-0.45703 5.3571428,5.3571428 0 0 0 0.23437,-0.48243 5.3571428,5.3571428 0 0 0 0.1836,-0.50195 5.3571428,5.3571428 0 0 0 0.13085,-0.51953 5.3571428,5.3571428 0 0 0 0.0801,-0.5293 5.3571428,5.3571428 0 0 0 0.0273,-0.53515 5.3571428,5.3571428 0 0 0 -0.0137,-0.37891 5.3571428,5.3571428 0 0 0 -0.0645,-0.5332 5.3571428,5.3571428 0 0 0 -0.11719,-0.52149 5.3571428,5.3571428 0 0 0 -0.16796,-0.50781 5.3571428,5.3571428 0 0 0 -0.21875,-0.48828 5.3571428,5.3571428 0 0 0 -0.26758,-0.46484 5.3571428,5.3571428 0 0 0 -0.31055,-0.43555 5.3571428,5.3571428 0 0 0 -0.35351,-0.40234 5.3571428,5.3571428 0 0 0 -0.39258,-0.36524 5.3571428,5.3571428 0 0 0 -0.42578,-0.32422 5.3571428,5.3571428 0 0 0 -0.45704,-0.2793 5.3571428,5.3571428 0 0 0 -0.48242,-0.23437 5.3571428,5.3571428 0 0 0 -0.50195,-0.18359 5.3571428,5.3571428 0 0 0 -0.51953,-0.13086 5.3571428,5.3571428 0 0 0 -0.5293,-0.0801 5.3571428,5.3571428 0 0 0 -0.53516,-0.0273 z"
       style="opacity:1;vector-effect:none;fill:none;fill-opacity:1;fill-rule:nonzero;stroke:#ff005c;stroke-width:0.9533112;stroke-miterlimit:4;stroke-dasharray:none;stroke-opacity:1"
       inkscape:connector-curvature="0"
       inkscape:label="кнопка" />
    <path
       transform="scale(0.26458333)"
       id="path961"
       d="m 397.77148,559.66797 c -1.66318,0 -3.0039,1.21337 -3.0039,2.72265 v 135.3125 c 0,1.50936 1.34072,2.72461 3.0039,2.72461 h 57.61329 c 1.66321,0 3.00195,-1.21525 3.00195,-2.72461 v -15.18359 h -10.16406 c -1.04693,0 -2.04235,-0.21034 -2.94727,-0.5918 -0.90492,-0.38145 -1.71925,-0.93409 -2.40234,-1.61718 -0.6831,-0.68309 -1.23574,-1.49743 -1.61719,-2.40235 -0.38145,-0.90491 -0.5918,-1.90034 -0.5918,-2.94726 V 599.9082 H 406.375 v -8.33398 h 34.28906 v -5.81445 H 406.375 v -8.33399 h 34.28906 v -0.91797 c 0,-1.04692 0.21035,-2.04235 0.5918,-2.94726 0.38145,-0.90492 0.93409,-1.71926 1.61719,-2.40235 0.68309,-0.68309 1.49742,-1.23573 2.40234,-1.61718 0.90492,-0.38146 1.90034,-0.5918 2.94727,-0.5918 h 10.16406 v -6.5586 c 0,-1.50928 -1.33874,-2.72265 -3.00195,-2.72265 z m 28.80664,114.37891 a 5.3571428,5.3571428 0 0 1 0.53516,0.0273 5.3571428,5.3571428 0 0 1 0.5293,0.0801 5.3571428,5.3571428 0 0 1 0.51953,0.13086 5.3571428,5.3571428 0 0 1 0.50195,0.18359 5.3571428,5.3571428 0 0 1 0.48242,0.23437 5.3571428,5.3571428 0 0 1 0.45704,0.2793 5.3571428,5.3571428 0 0 1 0.42578,0.32422 5.3571428,5.3571428 0 0 1 0.39258,0.36524 5.3571428,5.3571428 0 0 1 0.35351,0.40234 5.3571428,5.3571428 0 0 1 0.31055,0.43555 5.3571428,5.3571428 0 0 1 0.26758,0.46484 5.3571428,5.3571428 0 0 1 0.21875,0.48828 5.3571428,5.3571428 0 0 1 0.16796,0.50781 5.3571428,5.3571428 0 0 1 0.11719,0.52149 5.3571428,5.3571428 0 0 1 0.0645,0.5332 5.3571428,5.3571428 0 0 1 0.0137,0.37891 5.3571428,5.3571428 0 0 1 -0.0273,0.53515 5.3571428,5.3571428 0 0 1 -0.0801,0.5293 5.3571428,5.3571428 0 0 1 -0.13085,0.51953 5.3571428,5.3571428 0 0 1 -0.1836,0.50195 5.3571428,5.3571428 0 0 1 -0.23437,0.48243 5.3571428,5.3571428 0 0 1 -0.2793,0.45703 5.3571428,5.3571428 0 0 1 -0.32422,0.42578 5.3571428,5.3571428 0 0 1 -0.36523,0.39258 5.3571428,5.3571428 0 0 1 -0.40235,0.35351 5.3571428,5.3571428 0 0 1 -0.43554,0.31055 5.3571428,5.3571428 0 0 1 -0.46485,0.26758 5.3571428,5.3571428 0 0 1 -0.48828,0.21875 5.3571428,5.3571428 0 0 1 -0.50781,0.16797 5.3571428,5.3571428 0 0 1 -0.52344,0.11718 5.3571428,5.3571428 0 0 1 -0.53125,0.0645 5.3571428,5.3571428 0 0 1 -0.37891,0.0137 5.3571428,5.3571428 0 0 1 -0.53515,-0.0273 5.3571428,5.3571428 0 0 1 -0.5293,-0.0801 5.3571428,5.3571428 0 0 1 -0.51953,-0.13086 5.3571428,5.3571428 0 0 1 -0.50195,-0.1836 5.3571428,5.3571428 0 0 1 -0.48242,-0.23437 5.3571428,5.3571428 0 0 1 -0.45704,-0.2793 5.3571428,5.3571428 0 0 1 -0.42578,-0.32422 5.3571428,5.3571428 0 0 1 -0.39257,-0.36523 5.3571428,5.3571428 0 0 1 -0.35352,-0.40234 5.3571428,5.3571428 0 0 1 -0.31055,-0.43555 5.3571428,5.3571428 0 0 1 -0.26758,-0.46485 5.3571428,5.3571428 0 0 1 -0.21875,-0.48828 5.3571428,5.3571428 0 0 1 -0.16796,-0.50781 5.3571428,5.3571428 0 0 1 -0.11719,-0.52344 5.3571428,5.3571428 0 0 1 -0.0645,-0.53125 5.3571428,5.3571428 0 0 1 -0.0137,-0.3789 5.3571428,5.3571428 0 0 1 0.0273,-0.53516 5.3571428,5.3571428 0 0 1 0.0801,-0.5293 5.3571428,5.3571428 0 0 1 0.13086,-0.51953 5.3571428,5.3571428 0 0 1 0.1836,-0.50195 5.3571428,5.3571428 0 0 1 0.23437,-0.48242 5.3571428,5.3571428 0 0 1 0.2793,-0.45703 5.3571428,5.3571428 0 0 1 0.32422,-0.42579 5.3571428,5.3571428 0 0 1 0.36523,-0.39257 5.3571428,5.3571428 0 0 1 0.40235,-0.35352 5.3571428,5.3571428 0 0 1 0.43554,-0.31055 5.3571428,5.3571428 0 0 1 0.46485,-0.26757 5.3571428,5.3571428 0 0 1 0.48828,-0.21875 5.3571428,5.3571428 0 0 1 0.50781,-0.16797 5.3571428,5.3571428 0 0 1 0.52344,-0.11719 5.3571428,5.3571428 0 0 1 0.53125,-0.0644 5.3571428,5.3571428 0 0 1 0.3789,-0.0137 z"
       style="opacity:1;vector-effect:none;fill:#00efff;fill-opacity:1;fill-rule:nonzero;stroke:#ff005c;stroke-width:0.9533112;stroke-miterlimit:4;stroke-dasharray:none;stroke-opacity:1"
       inkscape:connector-curvature="0"
       inkscape:label="системник" />
    <path
       id="rect854"
       transform="scale(0.26458333)"
       d="m 448.22266,568.94922 c -4.18772,0 -7.5586,3.37088 -7.5586,7.55859 v 98.45313 c 0,4.18771 3.37088,7.55859 7.5586,7.55859 h 84.52343 v 17.35742 H 496.2207 v 8.57227 h 78.98633 v -8.57227 h -36.52539 v -17.35742 h 84.52344 c 4.18771,0 7.56054,-3.37088 7.56054,-7.55859 v -98.45313 c 10e-6,-4.18771 -3.37283,-7.55859 -7.56054,-7.55859 z m 8.55859,12.86133 h 157.86719 c 1.53471,0 2.76953,1.21903 2.76953,2.73437 v 82.37696 c 0,1.51532 -1.23482,2.73632 -2.76953,2.73632 H 456.78125 c -1.53471,0 -2.77148,-1.221 -2.77148,-2.73632 v -82.37696 c 0,-1.51534 1.23677,-2.73437 2.77148,-2.73437 z"
       style="display:inline;opacity:1;vector-effect:none;fill:#00efff;fill-opacity:1;fill-rule:nonzero;stroke:#ff005c;stroke-width:0.91012347;stroke-miterlimit:4;stroke-dasharray:none;stroke-opacity:1"
       inkscape:connector-curvature="0"
       inkscape:label="монитор" />
  </g>
  <path
     inkscape:connector-curvature="0"
     id="path4911"
     d="m 16.533902,263.37311 h 41.769027 c 0.406059,0 0.732772,0.32254 0.732772,0.72347 v 21.79557 c 0,0.40093 -0.326713,0.72399 -0.732772,0.72399 H 16.533902 c -0.406058,0 -0.733287,-0.32306 -0.733287,-0.72399 v -21.79557 c 0,-0.40093 0.327229,-0.72347 0.733287,-0.72347 z"
     style="display:inline;opacity:1;vector-effect:none;fill:none;fill-opacity:1;fill-rule:nonzero;stroke:#00e4e7;stroke-width:0.2408035;stroke-miterlimit:4;stroke-dasharray:none;stroke-opacity:1"
     inkscape:label="внутр. экран" />
</svg>
