<svg
    xmlns="http://www.w3.org/2000/svg"
    viewBox="0 0 24 24"
    id="playtopause"
    width="24px"
    height="24px">
    <g
        id="group"
        transform="rotate(15.765146778566178 12 12)">
        <path
            id="path"
            d="M 7.474 5.175 L 7.474 11.65 L 19 11.65 L 19 10.949 L 7.474 5.175 M 7.474 12.35 L 7.474 18.825 L 19 13.051 L 19 12.35 L 7.474 12.35"
            fill="#000000"
            stroke-width="1"/>
    </g>
</svg>
