<svg
    xmlns="http://www.w3.org/2000/svg"
    viewBox="0 0 24 24"
    id="playtopause"
    width="24px"
    height="24px">
    <g
        id="group"
        transform="rotate(2.952065138998949 12 12)">
        <path
            id="path"
            d="M 7.902 5.033 L 7.902 11.934 L 19 11.934 L 19 11.803 L 7.902 5.033 M 7.902 12.066 L 7.902 18.967 L 19 12.197 L 19 12.066 L 7.902 12.066"
            fill="#000000"
            stroke-width="1"/>
    </g>
</svg>
