<svg
    xmlns="http://www.w3.org/2000/svg"
    viewBox="0 0 24 24"
    id="playtopause"
    width="24px"
    height="24px">
    <g
        id="group"
        transform="rotate(75.34184818659404 12 12)">
        <path
            id="path"
            d="M 5.489 5.837 L 5.489 10.326 L 19 10.326 L 19 6.977 L 5.489 5.837 M 5.489 13.674 L 5.489 18.163 L 19 17.023 L 19 13.674 L 5.489 13.674"
            fill="#000000"
            stroke-width="1"/>
    </g>
</svg>
